# Blender v2.69 (sub 0) OBJ File: ''
# www.blender.org
v 0.011543 1.576728 -0.502582
v 0.011543 2.054451 -0.248299
v 0.006264 1.576973 -0.503041
v 0.006264 2.054696 -0.248758
v 0.001188 1.577696 -0.504400
v 0.001188 2.055419 -0.250117
v -0.003490 1.578871 -0.506607
v -0.003490 2.056594 -0.252324
v -0.007591 1.580452 -0.509578
v -0.007590 2.058175 -0.255295
v -0.010956 1.582379 -0.513197
v -0.010955 2.060102 -0.258915
v -0.013456 1.584577 -0.517327
v -0.013456 2.062300 -0.263044
v -0.014996 1.586962 -0.521808
v -0.014996 2.064685 -0.267525
v -0.015516 1.589443 -0.526468
v -0.015516 2.067165 -0.272185
v -0.014996 1.591923 -0.531128
v -0.014996 2.069646 -0.276845
v -0.013456 1.594308 -0.535609
v -0.013456 2.072031 -0.281326
v -0.010956 1.596506 -0.539738
v -0.010956 2.074229 -0.285455
v -0.007591 1.598433 -0.543358
v -0.007590 2.076156 -0.289075
v -0.003490 1.600014 -0.546328
v -0.003490 2.077737 -0.292046
v 0.001188 1.601189 -0.548536
v 0.001188 2.078912 -0.294253
v 0.006264 1.601912 -0.549895
v 0.006264 2.079635 -0.295612
v 0.011543 1.602157 -0.550354
v 0.011543 2.079880 -0.296071
v 0.016822 2.079635 -0.295612
v 0.016822 1.601912 -0.549895
v 0.021898 2.078912 -0.294253
v 0.021898 1.601189 -0.548536
v 0.026577 2.077737 -0.292046
v 0.026576 1.600014 -0.546328
v 0.030677 2.076156 -0.289075
v 0.030677 1.598433 -0.543358
v 0.034042 2.074229 -0.285455
v 0.034042 1.596506 -0.539738
v 0.036543 2.072031 -0.281326
v 0.036542 1.594308 -0.535609
v 0.038083 2.069646 -0.276845
v 0.038082 1.591923 -0.531128
v 0.038602 2.067165 -0.272185
v 0.038602 1.589443 -0.526468
v 0.038083 2.064685 -0.267525
v 0.038082 1.586962 -0.521808
v 0.036543 2.062300 -0.263044
v 0.036542 1.584577 -0.517327
v 0.034042 2.060102 -0.258915
v 0.034042 1.582379 -0.513197
v 0.030677 2.058175 -0.255295
v 0.030677 1.580452 -0.509578
v 0.026577 2.056594 -0.252324
v 0.026576 1.578871 -0.506607
v 0.021898 2.055419 -0.250117
v 0.016822 2.054696 -0.248758
v 0.016822 1.576973 -0.503041
v 0.021898 1.577696 -0.504400
v 0.032629 2.051950 -0.262695
v 0.049143 2.063802 -0.277552
v 0.014634 2.056079 -0.279812
v 0.014996 2.044645 -0.246275
v -0.002654 2.048694 -0.263064
v -0.003790 2.064596 -0.294710
v 0.031493 2.067852 -0.294341
v 0.013423 2.076205 -0.308952
v -0.021934 2.077173 -0.306815
v -0.020723 2.057047 -0.277675
v -0.004372 2.088540 -0.320824
v -0.039100 2.093326 -0.315662
v -0.038519 2.069382 -0.289548
v -0.055355 2.085225 -0.298225
v -0.070587 2.103968 -0.303374
v -0.021209 2.104383 -0.329502
v -0.036440 2.123125 -0.334651
v -0.054630 2.112436 -0.320912
v -0.049480 2.144046 -0.336073
v -0.067926 2.133767 -0.322362
v -0.059829 2.166343 -0.333715
v -0.083627 2.124889 -0.304796
v -0.078477 2.156500 -0.319958
v -0.067088 2.189157 -0.327666
v -0.093976 2.147185 -0.302438
v -0.085879 2.179761 -0.313790
v -0.070978 2.211613 -0.318159
v -0.101235 2.169999 -0.296389
v -0.089845 2.202657 -0.304097
v -0.071351 2.232847 -0.305559
v -0.105125 2.192455 -0.286882
v -0.090225 2.224307 -0.291251
v -0.087003 2.243879 -0.275745
v -0.105498 2.213689 -0.274282
v -0.102338 2.232886 -0.259074
v -0.068191 2.252043 -0.290351
v -0.061620 2.268464 -0.273119
v -0.095767 2.249307 -0.241842
v -0.080304 2.260622 -0.258175
v -0.051891 2.281479 -0.254526
v -0.086037 2.262322 -0.223249
v -0.070384 2.273892 -0.239217
v -0.039377 2.290588 -0.235285
v -0.057625 2.283179 -0.219599
v -0.024559 2.295440 -0.216136
v -0.073524 2.271430 -0.204008
v -0.042517 2.288126 -0.200075
v -0.058706 2.276282 -0.184859
v -0.042154 2.276691 -0.166538
v -0.025641 2.288543 -0.181395
v -0.008008 2.295848 -0.197815
v -0.007645 2.284414 -0.164278
v -0.024505 2.272641 -0.149749
v 0.009642 2.291799 -0.181026
v 0.010778 2.275897 -0.149380
v -0.006435 2.264288 -0.135138
v 0.028922 2.263320 -0.137275
v 0.027712 2.283446 -0.166415
v 0.045507 2.271111 -0.154542
v 0.062344 2.255268 -0.145865
v 0.011360 2.251953 -0.123266
v 0.046089 2.247167 -0.128428
v 0.061618 2.228057 -0.123178
v 0.028197 2.236110 -0.114588
v 0.043428 2.217368 -0.109439
v 0.056469 2.196447 -0.108017
v 0.077575 2.236525 -0.140716
v 0.074914 2.206726 -0.121727
v 0.090615 2.215604 -0.139294
v 0.100964 2.193308 -0.141652
v 0.066817 2.174151 -0.110375
v 0.085466 2.183993 -0.124132
v 0.092867 2.160732 -0.130300
v 0.108223 2.170494 -0.147701
v 0.096834 2.137837 -0.139993
v 0.074076 2.151336 -0.116424
v 0.112113 2.148038 -0.157208
v 0.112486 2.126804 -0.169808
v 0.077967 2.128881 -0.125931
v 0.078339 2.107646 -0.138531
v 0.097213 2.116186 -0.152839
v 0.109326 2.107607 -0.185016
v 0.075179 2.088450 -0.153739
v 0.093991 2.096614 -0.168345
v 0.087292 2.079871 -0.185915
v 0.102755 2.091186 -0.202248
v 0.077372 2.066601 -0.204873
v 0.068608 2.072029 -0.170971
v 0.093026 2.078171 -0.220841
v 0.080512 2.069063 -0.240082
v 0.058879 2.059014 -0.189564
v 0.064613 2.057314 -0.224491
v 0.049505 2.052367 -0.244015
v 0.046365 2.049905 -0.208805
v 0.031548 2.045054 -0.227954
v 0.065694 2.064211 -0.259231
v 0.005378 2.051242 -0.270312
v 0.021729 2.046628 -0.251730
v 0.040281 2.055165 -0.265613
v -0.011045 2.060430 -0.287038
v 0.007507 2.068966 -0.300921
v 0.024294 2.059946 -0.284467
v 0.042409 2.072889 -0.296223
v 0.058048 2.067859 -0.277143
v 0.074349 2.084222 -0.285878
v 0.025275 2.081660 -0.312452
v 0.059030 2.089573 -0.305128
v 0.088557 2.103627 -0.291481
v 0.041576 2.098024 -0.321186
v 0.073516 2.109357 -0.310841
v 0.055784 2.117428 -0.326789
v 0.085311 2.131481 -0.313141
v 0.100126 2.125326 -0.293737
v 0.108611 2.148486 -0.292559
v 0.067352 2.139127 -0.329045
v 0.075837 2.162288 -0.327867
v 0.093962 2.155096 -0.311941
v 0.113686 2.172217 -0.287993
v 0.099137 2.179292 -0.307285
v 0.115156 2.195607 -0.280215
v 0.080912 2.186019 -0.323302
v 0.082382 2.209409 -0.315523
v 0.100636 2.203140 -0.299354
v 0.112964 2.217758 -0.269522
v 0.080191 2.231560 -0.304831
v 0.098401 2.225725 -0.288453
v 0.107196 2.237818 -0.256327
v 0.074423 2.251619 -0.291635
v 0.092520 2.246177 -0.274999
v 0.083217 2.263712 -0.259510
v 0.065299 2.268817 -0.276444
v 0.098072 2.255015 -0.241136
v 0.070851 2.277655 -0.242581
v 0.053170 2.282492 -0.259841
v 0.085944 2.268690 -0.224533
v 0.071276 2.278317 -0.207155
v 0.038503 2.292118 -0.242463
v 0.055896 2.287470 -0.224863
v 0.038928 2.292780 -0.207037
v 0.021860 2.297326 -0.224980
v 0.054634 2.283525 -0.189672
v 0.036655 2.284114 -0.172754
v 0.003882 2.297916 -0.208062
v 0.020597 2.293381 -0.189788
v 0.001610 2.289251 -0.173778
v 0.018033 2.280063 -0.157051
v -0.000519 2.271527 -0.143169
v -0.014741 2.293865 -0.192360
v -0.017305 2.280547 -0.159623
v -0.018287 2.258833 -0.131638
v -0.033292 2.285328 -0.178477
v -0.035421 2.267604 -0.147867
v -0.051060 2.272634 -0.166947
v -0.052041 2.250920 -0.138962
v -0.034588 2.242469 -0.122904
v -0.048795 2.223065 -0.117301
v -0.067361 2.256271 -0.158212
v -0.066528 2.231136 -0.133249
v -0.060364 2.201366 -0.115045
v -0.081569 2.236867 -0.152609
v -0.078323 2.209011 -0.130949
v -0.093137 2.215167 -0.150353
v -0.086974 2.185397 -0.132149
v -0.068849 2.178206 -0.116223
v -0.092148 2.161201 -0.136805
v -0.101622 2.192007 -0.151531
v -0.073924 2.154474 -0.120788
v -0.093647 2.137353 -0.144735
v -0.106697 2.168276 -0.156097
v -0.075394 2.131084 -0.128567
v -0.073203 2.108933 -0.139259
v -0.108167 2.144885 -0.163875
v -0.091413 2.114768 -0.155637
v -0.085532 2.094316 -0.169091
v -0.105976 2.122735 -0.174567
v -0.067434 2.088874 -0.152455
v -0.076229 2.076781 -0.184580
v -0.100208 2.102676 -0.187763
v -0.091084 2.085478 -0.202954
v -0.058311 2.071676 -0.167646
v -0.046182 2.058001 -0.184249
v -0.078955 2.071803 -0.219557
v -0.063863 2.062838 -0.201509
v -0.031514 2.048375 -0.201627
v -0.048908 2.053023 -0.219227
v -0.014872 2.043167 -0.219110
v -0.064288 2.062177 -0.236935
v -0.047645 2.056968 -0.254418
v -0.031939 2.047713 -0.237053
v 0.003106 2.042577 -0.236028
v -0.029667 2.056378 -0.271336
v -0.013609 2.047112 -0.254302
v 0.003494 2.056873 -0.282391
v 0.028550 2.059052 -0.281232
v 0.028550 2.072735 -0.301788
v -0.021562 2.059052 -0.281232
v 0.003494 2.070824 -0.303350
v -0.021562 2.072735 -0.301788
v 0.003494 2.088597 -0.321184
v 0.028550 2.090165 -0.319279
v 0.003494 2.109507 -0.335208
v -0.021562 2.090166 -0.319279
v 0.028550 2.110674 -0.333034
v 0.003494 2.132751 -0.344883
v -0.021562 2.110674 -0.333034
v -0.021562 2.133471 -0.342523
v 0.003494 2.157436 -0.349838
v 0.028550 2.133471 -0.342523
v 0.028550 2.157682 -0.347383
v 0.028550 2.182375 -0.347426
v -0.021562 2.157682 -0.347383
v 0.003494 2.182613 -0.349882
v 0.028550 2.206603 -0.342650
v -0.021562 2.182375 -0.347425
v 0.003494 2.207315 -0.345013
v 0.028550 2.229433 -0.333240
v -0.021562 2.206603 -0.342650
v 0.003494 2.230593 -0.335418
v 0.003494 2.251551 -0.321467
v -0.021562 2.229433 -0.333240
v 0.028550 2.249989 -0.319556
v 0.003494 2.269385 -0.303695
v -0.021562 2.249989 -0.319556
v 0.028550 2.267480 -0.302126
v 0.003494 2.283410 -0.282785
v -0.021562 2.267481 -0.302126
v 0.028550 2.281235 -0.281618
v 0.028550 2.290725 -0.258820
v -0.021562 2.281235 -0.281618
v 0.003494 2.293085 -0.259541
v 0.003494 2.298040 -0.234855
v -0.021562 2.290725 -0.258820
v 0.028550 2.295584 -0.234609
v 0.003494 2.298083 -0.209678
v -0.021562 2.295584 -0.234609
v 0.028550 2.295627 -0.209916
v 0.003494 2.293215 -0.184976
v -0.021562 2.295627 -0.209916
v -0.021562 2.290852 -0.185688
v 0.003494 2.283620 -0.161698
v 0.028550 2.290852 -0.185688
v 0.028550 2.281442 -0.162858
v 0.003494 2.269668 -0.140740
v -0.021562 2.281442 -0.162858
v -0.021562 2.267758 -0.142302
v 0.028550 2.267758 -0.142302
v 0.003494 2.251896 -0.122906
v -0.021562 2.250327 -0.124811
v -0.021562 2.229819 -0.111056
v 0.028551 2.250327 -0.124811
v 0.003494 2.230986 -0.108882
v 0.028551 2.229819 -0.111056
v 0.003494 2.207742 -0.099206
v 0.028551 2.207022 -0.101567
v 0.003494 2.183057 -0.094252
v -0.021562 2.207022 -0.101567
v -0.021562 2.182811 -0.096707
v 0.003494 2.157880 -0.094208
v 0.028551 2.182811 -0.096707
v 0.028550 2.158117 -0.096664
v 0.028550 2.133890 -0.101440
v -0.021562 2.158117 -0.096664
v 0.003494 2.133178 -0.099077
v 0.003494 2.109900 -0.108672
v -0.021562 2.133890 -0.101440
v 0.028550 2.111060 -0.110850
v 0.003494 2.088942 -0.122623
v -0.021562 2.111060 -0.110850
v -0.021562 2.090504 -0.124533
v 0.028550 2.090504 -0.124534
v 0.028550 2.073012 -0.141964
v -0.021562 2.073013 -0.141964
v 0.003494 2.071108 -0.140395
v 0.028550 2.059258 -0.162472
v -0.021562 2.059258 -0.162472
v 0.003494 2.057083 -0.161305
v 0.028550 2.049768 -0.185270
v 0.003494 2.047408 -0.184549
v 0.003494 2.042453 -0.209234
v -0.021562 2.049768 -0.185270
v 0.028550 2.044909 -0.209481
v 0.003494 2.042410 -0.234412
v -0.021562 2.044909 -0.209481
v -0.021562 2.044866 -0.234174
v 0.028550 2.044866 -0.234174
v 0.003494 2.047279 -0.259114
v -0.021562 2.049641 -0.258402
v 0.028550 2.049641 -0.258402
v 0.003494 2.056873 -0.282391
v 0.003494 2.047278 -0.259114
v 0.028550 2.059052 -0.281232
v 0.003494 2.070824 -0.303350
v 0.028069 2.072961 -0.302213
v 0.052643 2.065503 -0.277798
v 0.028069 2.049415 -0.257977
v 0.051699 2.055743 -0.254609
v 0.074848 2.075980 -0.272221
v 0.051699 2.079289 -0.298845
v 0.073477 2.089564 -0.293375
v 0.073477 2.066018 -0.249139
v 0.094310 2.090079 -0.264716
v 0.092565 2.103393 -0.286014
v 0.108231 2.120243 -0.277046
v 0.092565 2.079847 -0.241778
v 0.110283 2.107260 -0.255572
v 0.108231 2.096697 -0.232809
v 0.122151 2.126860 -0.245139
v 0.119871 2.115921 -0.222577
v 0.129460 2.148128 -0.233818
v 0.119871 2.139467 -0.266813
v 0.127040 2.160326 -0.255710
v 0.127040 2.136780 -0.211474
v 0.131928 2.170246 -0.222045
v 0.129460 2.158473 -0.199927
v 0.127040 2.180166 -0.188380
v 0.129460 2.182019 -0.244163
v 0.127040 2.203713 -0.232616
v 0.129460 2.192364 -0.210272
v 0.122152 2.213632 -0.198951
v 0.119871 2.224572 -0.221513
v 0.119872 2.201026 -0.177277
v 0.110283 2.233233 -0.188518
v 0.108231 2.243796 -0.211280
v 0.108231 2.220250 -0.167044
v 0.094311 2.250413 -0.179373
v 0.092566 2.260646 -0.202311
v 0.092566 2.237100 -0.158075
v 0.074848 2.264513 -0.171869
v 0.073477 2.274475 -0.194951
v 0.073477 2.250928 -0.150715
v 0.052644 2.274990 -0.166292
v 0.051699 2.284750 -0.189481
v 0.051699 2.261204 -0.145245
v 0.028550 2.281441 -0.162858
v 0.028069 2.291078 -0.186113
v 0.003494 2.293214 -0.184976
v 0.028069 2.267532 -0.141877
v 0.003494 2.283620 -0.161698
v 0.003494 2.269668 -0.140740
v -0.021562 2.281441 -0.162858
v -0.021080 2.267532 -0.141877
v -0.044711 2.261204 -0.145245
v -0.021080 2.291078 -0.186113
v -0.045655 2.274990 -0.166292
v -0.044711 2.284750 -0.189481
v -0.067860 2.264513 -0.171868
v -0.066489 2.250929 -0.150715
v -0.087322 2.250413 -0.179373
v -0.066489 2.274475 -0.194951
v -0.085577 2.260646 -0.202311
v -0.085577 2.237100 -0.158075
v -0.101243 2.220250 -0.167044
v -0.101243 2.243796 -0.211280
v -0.103294 2.233233 -0.188518
v -0.112883 2.224572 -0.221513
v -0.112883 2.201026 -0.177277
v -0.115163 2.213633 -0.198951
v -0.120051 2.180167 -0.188380
v -0.120051 2.203713 -0.232616
v -0.122472 2.192365 -0.210272
v -0.122472 2.158474 -0.199927
v -0.124940 2.170247 -0.222045
v -0.122472 2.148129 -0.233818
v -0.122472 2.182020 -0.244163
v -0.120051 2.136781 -0.211474
v -0.115163 2.126860 -0.245138
v -0.120051 2.160327 -0.255710
v -0.112883 2.115921 -0.222577
v -0.101243 2.096697 -0.232809
v -0.112883 2.139467 -0.266813
v -0.101243 2.120243 -0.277045
v -0.103295 2.107260 -0.255571
v -0.085577 2.079847 -0.241778
v -0.087322 2.090080 -0.264716
v -0.066489 2.066018 -0.249139
v -0.085577 2.103393 -0.286014
v -0.066489 2.089564 -0.293375
v -0.067860 2.075980 -0.272221
v -0.044711 2.055743 -0.254608
v -0.044711 2.079289 -0.298844
v -0.045655 2.065503 -0.277798
v -0.021081 2.049415 -0.257976
v -0.021562 2.059052 -0.281232
v -0.021081 2.072961 -0.302213
vt 0.150356 0.000000
vt 0.150357 0.929939
vt 0.142573 0.000157
vt 0.142573 0.930096
vt 0.133585 0.000276
vt 0.133586 0.930215
vt 0.123738 0.000354
vt 0.123738 0.930293
vt 0.113408 0.000386
vt 0.113410 0.930324
vt 0.102996 0.000374
vt 0.102997 0.930312
vt 0.092900 0.000315
vt 0.092900 0.930253
vt 0.083507 0.000212
vt 0.083507 0.930151
vt 0.075178 0.000071
vt 0.300567 0.000090
vt 0.300567 0.930100
vt 0.292122 0.000209
vt 0.292121 0.930221
vt 0.282643 0.000295
vt 0.282643 0.930306
vt 0.272500 0.000342
vt 0.272499 0.930355
vt 0.262077 0.000350
vt 0.262075 0.930363
vt 0.251778 0.000318
vt 0.251776 0.930330
vt 0.241997 0.000247
vt 0.241997 0.930259
vt 0.233113 0.000139
vt 0.233112 0.930151
vt 0.225463 0.000000
vt 0.075178 0.000386
vt 0.075178 0.930325
vt 0.067395 0.930167
vt 0.067395 0.000228
vt 0.058407 0.930049
vt 0.058407 0.000110
vt 0.048559 0.929971
vt 0.048559 0.000033
vt 0.038230 0.929939
vt 0.038230 0.000000
vt 0.027817 0.929952
vt 0.027817 0.000013
vt 0.017720 0.930010
vt 0.017722 0.000071
vt 0.008327 0.930113
vt 0.008328 0.000174
vt 0.000000 0.930253
vt 0.150357 0.930100
vt 0.150357 0.000089
vt 0.158802 0.000209
vt 0.158803 0.930221
vt 0.168280 0.000294
vt 0.168281 0.930307
vt 0.178425 0.000343
vt 0.178425 0.930354
vt 0.188847 0.000351
vt 0.188847 0.930363
vt 0.199146 0.000318
vt 0.199148 0.930330
vt 0.208927 0.000247
vt 0.392227 0.760717
vt 0.383595 0.765788
vt 0.374003 0.769281
vt 0.217812 0.930151
vt 0.217812 0.000139
vt 0.225462 0.000000
vt 0.208927 0.930259
vt 0.311943 0.795338
vt 0.317740 0.787790
vt 0.307952 0.803726
vt 0.355124 0.476496
vt 0.404560 0.477430
vt 0.354895 0.519292
vt 0.306139 0.477638
vt 0.305913 0.519613
vt 0.355124 0.562522
vt 0.404335 0.519405
vt 0.404559 0.561804
vt 0.355804 0.604523
vt 0.306139 0.562010
vt 0.405226 0.602997
vt 0.356908 0.643679
vt 0.306805 0.603206
vt 0.307888 0.641609
vt 0.309346 0.675751
vt 0.406309 0.641403
vt 0.407767 0.675543
vt 0.771584 0.341264
vt 0.722427 0.338038
vt 0.721613 0.306790
vt 0.820924 0.338166
vt 0.770754 0.309404
vt 0.721007 0.270536
vt 0.820110 0.306918
vt 0.770136 0.272443
vt 0.720635 0.230674
vt 0.819505 0.270666
vt 0.769758 0.231798
vt 0.720509 0.188733
vt 0.819133 0.230804
vt 0.769629 0.189034
vt 0.720636 0.146324
vt 0.819006 0.188861
vt 0.769758 0.145796
vt 0.770138 0.103742
vt 0.819134 0.146453
vt 0.819506 0.105205
vt 0.721009 0.105078
vt 0.721615 0.066580
vt 0.820112 0.066708
vt 0.770756 0.064489
vt 0.722428 0.032310
vt 0.820924 0.032437
vt 0.465594 0.678489
vt 0.416544 0.675238
vt 0.415086 0.643841
vt 0.514964 0.675444
vt 0.464107 0.646478
vt 0.414003 0.607475
vt 0.513508 0.644049
vt 0.463002 0.609400
vt 0.512424 0.607683
vt 0.511757 0.567744
vt 0.462323 0.568680
vt 0.413337 0.567538
vt 0.462091 0.525883
vt 0.511533 0.525770
vt 0.413111 0.525563
vt 0.462323 0.482653
vt 0.511757 0.483371
vt 0.463002 0.440652
vt 0.413336 0.483164
vt 0.414003 0.441970
vt 0.415084 0.403565
vt 0.512423 0.442178
vt 0.464104 0.401495
vt 0.465591 0.366685
vt 0.513506 0.403772
vt 0.723730 0.344490
vt 0.772888 0.341264
vt 0.722917 0.375738
vt 0.822227 0.344364
vt 0.772056 0.373124
vt 0.821412 0.375612
vt 0.820807 0.411863
vt 0.722310 0.411990
vt 0.771440 0.410086
vt 0.771061 0.450730
vt 0.820435 0.451726
vt 0.770933 0.493493
vt 0.721937 0.451854
vt 0.820308 0.493667
vt 0.820435 0.536076
vt 0.721813 0.493794
vt 0.721938 0.536205
vt 0.771059 0.536733
vt 0.820808 0.577323
vt 0.722311 0.577450
vt 0.771439 0.578786
vt 0.772058 0.618039
vt 0.821413 0.615821
vt 0.772888 0.652982
vt 0.722916 0.615949
vt 0.358395 0.366685
vt 0.407767 0.369728
vt 0.406310 0.401125
vt 0.309346 0.369937
vt 0.356909 0.398697
vt 0.355804 0.435775
vt 0.307888 0.401333
vt 0.306806 0.437699
vt 0.405226 0.437493
vt 0.564107 0.537509
vt 0.515302 0.537007
vt 0.514964 0.494620
vt 0.613586 0.536732
vt 0.613248 0.494345
vt 0.563762 0.494290
vt 0.564108 0.451458
vt 0.515302 0.452610
vt 0.516301 0.412589
vt 0.613586 0.452333
vt 0.565124 0.410652
vt 0.517923 0.376095
vt 0.614584 0.412313
vt 0.566778 0.373444
vt 0.616205 0.375820
vt 0.569002 0.341264
vt 0.520104 0.344533
vt 0.871954 0.341264
vt 0.822794 0.338738
vt 0.821999 0.303143
vt 0.921293 0.338493
vt 0.920498 0.302896
vt 0.871146 0.304970
vt 0.821409 0.263721
vt 0.870543 0.264776
vt 0.821046 0.221987
vt 0.919909 0.263475
vt 0.919546 0.221741
vt 0.870172 0.222225
vt 0.820924 0.179544
vt 0.919423 0.179297
vt 0.870049 0.178951
vt 0.821047 0.138023
vt 0.919545 0.137778
vt 0.870174 0.136618
vt 0.870545 0.096852
vt 0.919909 0.098777
vt 0.821411 0.099023
vt 0.871146 0.061181
vt 0.920500 0.063792
vt 0.822001 0.064039
vt 0.822796 0.034415
vt 0.921293 0.034171
vt 0.672428 0.341264
vt 0.721813 0.344263
vt 0.670203 0.375923
vt 0.623530 0.343987
vt 0.621347 0.377980
vt 0.719630 0.378255
vt 0.718007 0.416556
vt 0.619724 0.416279
vt 0.668548 0.414973
vt 0.667531 0.456912
vt 0.717010 0.457689
vt 0.716671 0.500074
vt 0.618725 0.457412
vt 0.667187 0.500128
vt 0.717009 0.542086
vt 0.618389 0.499798
vt 0.667531 0.542962
vt 0.618725 0.541809
vt 0.668549 0.583766
vt 0.718008 0.582107
vt 0.719630 0.618599
vt 0.619725 0.581830
vt 0.670202 0.620975
vt 0.721813 0.650161
vt 0.621346 0.618323
vt 0.672427 0.653155
vt 0.824098 0.343790
vt 0.873257 0.341264
vt 0.872448 0.377556
vt 0.922595 0.344034
vt 0.921800 0.379630
vt 0.871846 0.417751
vt 0.823303 0.379385
vt 0.921211 0.419052
vt 0.871476 0.460301
vt 0.822712 0.418806
vt 0.920847 0.460786
vt 0.920724 0.503229
vt 0.822350 0.460541
vt 0.871351 0.503576
vt 0.871475 0.545909
vt 0.822227 0.502983
vt 0.920847 0.544749
vt 0.871846 0.585675
vt 0.822348 0.544502
vt 0.822712 0.583504
vt 0.921210 0.583750
vt 0.921801 0.618735
vt 0.823303 0.618488
vt 0.872447 0.621346
vt 0.922595 0.648358
vt 0.873257 0.651549
vt 0.569003 0.653155
vt 0.520104 0.650431
vt 0.517922 0.616439
vt 0.618389 0.650156
vt 0.616205 0.616163
vt 0.566778 0.618495
vt 0.516301 0.578140
vt 0.614583 0.577864
vt 0.565125 0.579446
vt 0.349271 0.178574
vt 0.398768 0.178610
vt 0.399157 0.221004
vt 0.300567 0.178953
vt 0.349667 0.221799
vt 0.300956 0.221347
vt 0.350842 0.263775
vt 0.400309 0.262172
vt 0.352750 0.302889
vt 0.302109 0.262516
vt 0.402180 0.300535
vt 0.355318 0.337637
vt 0.303980 0.300878
vt 0.306498 0.334958
vt 0.358446 0.366685
vt 0.404698 0.334615
vt 0.407767 0.363106
vt 0.962585 0.030978
vt 0.998698 0.034867
vt 0.978846 0.070780
vt 0.514964 0.920700
vt 0.479270 0.923729
vt 0.461805 0.885268
vt 0.942343 0.067595
vt 0.965171 0.110411
vt 0.497837 0.882978
vt 0.451051 0.843677
vt 0.928401 0.108001
vt 0.958201 0.152235
vt 0.487287 0.842184
vt 0.447419 0.800553
vt 0.921293 0.150646
vt 0.921293 0.193887
vt 0.483726 0.799892
vt 0.451051 0.757560
vt 0.958201 0.194648
vt 0.928401 0.236065
vt 0.487288 0.757722
vt 0.461805 0.716344
vt 0.965172 0.236013
vt 0.942342 0.275560
vt 0.497834 0.717298
vt 0.479269 0.678489
vt 0.978845 0.274749
vt 0.998698 0.309364
vt 0.514964 0.363219
vt 0.465643 0.366685
vt 0.462516 0.340888
vt 0.413696 0.337574
vt 0.459949 0.308808
vt 0.511896 0.337918
vt 0.411178 0.306110
vt 0.458042 0.271676
vt 0.509379 0.306453
vt 0.409308 0.269694
vt 0.456867 0.230923
vt 0.507509 0.270037
vt 0.506356 0.230065
vt 0.456471 0.188110
vt 0.408156 0.229722
vt 0.407767 0.187733
vt 0.456867 0.144886
vt 0.505967 0.188076
vt 0.506357 0.145682
vt 0.408156 0.145338
vt 0.458042 0.102911
vt 0.507509 0.104513
vt 0.509379 0.066151
vt 0.409306 0.104169
vt 0.459949 0.063797
vt 0.411176 0.065807
vt 0.462516 0.029047
vt 0.413694 0.031727
vt 0.465643 0.000000
vt 0.511897 0.032071
vt 0.514964 0.003579
vt 1.000000 0.617249
vt 0.963887 0.621137
vt 0.943645 0.584521
vt 0.650239 0.653155
vt 0.685934 0.656183
vt 0.668802 0.693907
vt 0.632774 0.691617
vt 0.658256 0.734699
vt 0.980147 0.581334
vt 0.929703 0.544114
vt 0.622020 0.733208
vt 0.618389 0.776331
vt 0.966473 0.541704
vt 0.922595 0.501469
vt 0.654694 0.776992
vt 0.622020 0.819325
vt 0.959502 0.499880
vt 0.959501 0.457469
vt 0.658257 0.819161
vt 0.668804 0.859587
vt 0.922595 0.458228
vt 0.966473 0.416101
vt 0.632774 0.860541
vt 0.685934 0.896711
vt 0.929702 0.416050
vt 0.980147 0.377366
vt 0.358446 0.000000
vt 0.407767 0.003466
vt 0.404698 0.028767
vt 0.943644 0.376555
vt 0.963885 0.341264
vt 0.355318 0.025797
vt 0.352750 0.057877
vt 0.306498 0.029111
vt 0.402180 0.060232
vt 0.350842 0.095009
vt 0.303980 0.060575
vt 0.302108 0.096992
vt 0.400309 0.096648
vt 0.349668 0.135763
vt 0.300956 0.136964
vt 0.399157 0.136620
vt 0.666708 0.190971
vt 0.617737 0.190659
vt 0.666709 0.147699
vt 0.716150 0.190590
vt 0.716151 0.148149
vt 0.667179 0.105397
vt 0.617737 0.148218
vt 0.618200 0.106728
vt 0.668103 0.065688
vt 0.716614 0.106659
vt 0.717518 0.067713
vt 0.619104 0.067782
vt 0.669443 0.030101
vt 0.718833 0.032810
vt 0.720509 0.003288
vt 0.620419 0.032879
vt 0.671152 0.000000
vt 0.759061 0.652982
vt 0.798393 0.657001
vt 0.740803 0.689834
vt 0.899021 0.927421
vt 0.860262 0.931352
vt 0.841618 0.894587
vt 0.780484 0.693145
vt 0.728225 0.730397
vt 0.880736 0.891360
vt 0.868139 0.851634
vt 0.768147 0.732928
vt 0.721813 0.773109
vt 0.828774 0.854081
vt 0.822227 0.811392
vt 0.761859 0.774820
vt 0.761858 0.817212
vt 0.861718 0.809766
vt 0.861718 0.767363
vt 0.721813 0.816331
vt 0.728225 0.858401
vt 0.822227 0.768162
vt 0.868141 0.726061
vt 0.768147 0.858473
vt 0.740803 0.897702
vt 0.828773 0.726049
vt 0.880735 0.687443
vt 0.780484 0.897019
vt 0.759063 0.932723
vt 0.841618 0.686673
vt 0.899021 0.652993
vt 0.568381 0.000000
vt 0.617737 0.003269
vt 0.566671 0.031098
vt 0.519323 0.003200
vt 0.517647 0.033701
vt 0.616061 0.033770
vt 0.565331 0.067469
vt 0.516332 0.069374
vt 0.614746 0.069443
vt 0.564407 0.107719
vt 0.515427 0.108848
vt 0.514964 0.150609
vt 0.613840 0.108917
vt 0.563935 0.150297
vt 0.613378 0.150678
vt 0.563935 0.193568
vt 0.613378 0.193117
vt 0.613840 0.234608
vt 0.514964 0.193048
vt 0.564406 0.235871
vt 0.515427 0.234540
vt 0.565331 0.275580
vt 0.614745 0.273554
vt 0.566674 0.311166
vt 0.516331 0.273485
vt 0.517649 0.308388
vt 0.616063 0.308456
vt 0.617737 0.337977
vt 0.519323 0.337909
vt 0.591544 0.928876
vt 0.552215 0.932895
vt 0.573636 0.892731
vt 0.960632 0.621137
vt 0.999390 0.625068
vt 0.981104 0.661127
vt 0.941986 0.657901
vt 0.968508 0.700855
vt 0.533955 0.896043
vt 0.561300 0.852949
vt 0.929142 0.698408
vt 0.962085 0.742722
vt 0.521377 0.855481
vt 0.514964 0.812768
vt 0.922595 0.741096
vt 0.922595 0.784327
vt 0.555010 0.811057
vt 0.514964 0.769546
vt 0.962086 0.785123
vt 0.929144 0.826440
vt 0.555012 0.768666
vt 0.521375 0.727475
vt 0.968507 0.826428
vt 0.981104 0.865045
vt 0.561299 0.727403
vt 0.573634 0.688858
vt 0.941985 0.865814
vt 0.999390 0.899495
vt 0.533953 0.688176
vt 0.552215 0.653155
vt 0.671153 0.341264
vt 0.622095 0.338064
vt 0.620421 0.307566
vt 0.720509 0.337995
vt 0.718834 0.307497
vt 0.669445 0.310169
vt 0.619105 0.271893
vt 0.717519 0.271824
vt 0.668104 0.273797
vt 0.618198 0.232419
vt 0.667181 0.233549
vt 0.716614 0.232350
vt 0.075180 0.930008
vt 0.225462 0.930013
vt 0.000001 0.000316
vt 0.333661 0.765812
vt 0.353437 0.771072
vt 0.343254 0.769297
vt 0.317684 0.754308
vt 0.325027 0.760752
vt 0.311916 0.746729
vt 0.305913 0.729365
vt 0.307940 0.738308
vt 0.307936 0.711304
vt 0.305913 0.720248
vt 0.311908 0.702878
vt 0.317676 0.695293
vt 0.325017 0.688843
vt 0.353423 0.678495
vt 0.333649 0.683773
vt 0.343241 0.680279
vt 0.383583 0.683749
vt 0.363805 0.678490
vt 0.373988 0.680264
vt 0.399558 0.695253
vt 0.392215 0.688809
vt 0.409306 0.738257
vt 0.411329 0.720196
vt 0.411329 0.729313
vt 0.409302 0.711254
vt 0.405328 0.702832
vt 0.405335 0.746684
vt 0.399567 0.754267
vt 0.363821 0.771066
vt 0.225462 0.930012
vt 0.353652 0.771074
vt 0.333786 0.776324
vt 0.343424 0.772848
vt 0.399983 0.846514
vt 0.409771 0.830579
vt 0.405779 0.838966
vt 0.411808 0.821677
vt 0.411808 0.812600
vt 0.333777 0.857994
vt 0.353641 0.863232
vt 0.343411 0.861464
vt 0.317731 0.846536
vt 0.325105 0.852953
vt 0.305915 0.812628
vt 0.325114 0.781370
vt 0.305913 0.821704
vt 0.307947 0.830607
vt 0.311936 0.838992
vt 0.364082 0.771072
vt 0.374312 0.772840
vt 0.383947 0.776311
vt 0.392618 0.781351
vt 0.399992 0.787768
vt 0.405785 0.795312
vt 0.364069 0.863230
vt 0.374299 0.861457
vt 0.409776 0.803697
vt 0.383935 0.857980
vt 0.392608 0.852935
vt 0.358395 0.678490
vt 0.771586 0.029547
vt 0.416542 0.369423
vt 0.514964 0.369631
vt 0.822227 0.650092
vt 0.723730 0.650220
vt 0.618388 0.344258
vt 0.871956 0.030978
vt 0.623531 0.649885
vt 0.824096 0.648110
vt 0.309566 0.363449
vt 0.514964 0.680173
vt 0.962584 0.310851
vt 0.416761 0.003236
vt 0.650239 0.898396
vt 1.000000 0.342752
vt 0.622093 0.003357
vt 0.798393 0.931367
vt 0.860262 0.651549
vt 0.568379 0.341264
vt 0.960630 0.900939
vt 0.591544 0.654510
vn 0.000000 -0.947447 0.319865
vn 0.000000 0.262520 0.964904
vn -0.141942 -0.940642 0.308206
vn -0.141972 0.269845 0.952361
vn -0.278512 -0.921262 0.271432
vn -0.278542 0.289102 0.915860
vn -0.404370 -0.889645 0.212012
vn -0.404401 0.320872 0.856410
vn -0.514450 -0.847285 0.131870
vn -0.514817 0.363231 0.776543
vn -0.605243 -0.795251 0.034791
vn -0.605152 0.415326 0.679128
vn -0.672445 -0.736167 -0.076327
vn -0.672445 0.474380 0.568102
vn -0.713889 -0.671987 -0.196844
vn -0.713889 0.538530 0.447523
vn -0.727897 -0.605243 -0.322184
vn -0.728141 0.605029 0.322031
vn -0.713889 -0.538560 -0.447523
vn -0.713889 0.672018 0.196814
vn -0.672475 -0.474410 -0.568041
vn -0.672506 0.736106 0.076235
vn -0.605213 -0.415296 -0.679098
vn -0.605182 0.795282 -0.034822
vn -0.514664 -0.363384 -0.776543
vn -0.514664 0.847194 -0.131535
vn -0.404340 -0.320811 -0.856471
vn -0.404492 0.889553 -0.212195
vn -0.278603 -0.289376 -0.915738
vn -0.278481 0.921262 -0.271432
vn -0.141972 -0.269906 -0.952330
vn -0.142094 0.940580 -0.308329
vn 0.000000 -0.262490 -0.964904
vn 0.000031 0.947386 -0.320017
vn 0.141972 0.940733 -0.307962
vn 0.142003 -0.269906 -0.952330
vn 0.278420 0.921293 -0.271371
vn 0.278573 -0.289346 -0.915769
vn 0.404431 0.889584 -0.212165
vn 0.404340 -0.320902 -0.856441
vn 0.514664 0.847163 -0.131870
vn 0.514664 -0.363384 -0.776543
vn 0.605090 0.795373 -0.034883
vn 0.605213 -0.415265 -0.679128
vn 0.672445 0.736167 0.076235
vn 0.672445 -0.474410 -0.568041
vn 0.713767 0.672079 0.196966
vn 0.713767 -0.538682 -0.447584
vn 0.727866 0.605274 0.322184
vn 0.727897 -0.605274 -0.322153
vn 0.713858 0.538621 0.447493
vn 0.713706 -0.672140 -0.196966
vn 0.672353 0.474502 0.568102
vn 0.672445 -0.736167 -0.076327
vn 0.605182 0.415296 0.679159
vn 0.605243 -0.795251 0.034791
vn 0.514878 0.363170 0.776513
vn 0.514664 -0.847133 0.132084
vn 0.404370 0.320902 0.856441
vn 0.404370 -0.889645 0.212104
vn 0.278481 0.289285 0.915830
vn 0.142003 0.269875 0.952361
vn 0.142003 -0.940733 0.307901
vn 0.278512 -0.921262 0.271432
vn -0.226844 0.921049 0.316477
vn -0.292559 0.879158 0.376152
vn -0.086734 0.888913 0.449782
vn -0.158965 0.954113 0.253768
vn -0.019527 0.922111 0.386433
vn 0.056703 0.822596 0.565783
vn -0.153112 0.847162 0.508796
vn -0.010347 0.781159 0.624247
vn 0.197974 0.724662 0.660024
vn 0.123227 0.856118 0.501874
vn 0.130240 0.683728 0.718021
vn 0.331614 0.598895 0.728904
vn 0.263802 0.758657 0.595691
vn 0.396833 0.633490 0.664239
vn 0.517170 0.485413 0.704918
vn 0.263261 0.558562 0.786576
vn 0.383613 0.410483 0.827251
vn 0.452559 0.450087 0.769768
vn 0.486622 0.245203 0.838496
vn 0.556078 0.284005 0.781060
vn 0.568379 0.069055 0.819864
vn 0.620193 0.320134 0.716153
vn 0.638203 0.107028 0.762352
vn 0.625731 -0.111200 0.772072
vn 0.701944 0.143999 0.697524
vn 0.695853 -0.074068 0.714316
vn 0.656466 -0.288607 0.696963
vn 0.759305 -0.036260 0.649724
vn 0.726737 -0.252327 0.638844
vn 0.659401 -0.456368 0.597426
vn 0.790042 -0.213664 0.574614
vn 0.729698 -0.420911 0.538835
vn 0.704611 -0.573321 0.418104
vn 0.792989 -0.381413 0.475071
vn 0.768010 -0.533093 0.354926
vn 0.634440 -0.608034 0.477263
vn 0.582518 -0.737758 0.341153
vn 0.716104 -0.662820 0.218779
vn 0.652455 -0.703665 0.281320
vn 0.505660 -0.840578 0.194258
vn 0.639246 -0.765636 0.071876
vn 0.575213 -0.806970 0.133702
vn 0.406800 -0.912541 0.042227
vn 0.475875 -0.879299 -0.019013
vn 0.289724 -0.950876 -0.109060
vn 0.540384 -0.837593 -0.080143
vn 0.358226 -0.917814 -0.171056
vn 0.423325 -0.875922 -0.231424
vn 0.292565 -0.879154 -0.376158
vn 0.226844 -0.921049 -0.316477
vn 0.158947 -0.954111 -0.253787
vn 0.086703 -0.888913 -0.449751
vn 0.153112 -0.847163 -0.508795
vn 0.019534 -0.922111 -0.386432
vn -0.056703 -0.822596 -0.565783
vn 0.010348 -0.781168 -0.624235
vn -0.197974 -0.724662 -0.660024
vn -0.123229 -0.856110 -0.501887
vn -0.263800 -0.758658 -0.595691
vn -0.396835 -0.633484 -0.664244
vn -0.130237 -0.683718 -0.718031
vn -0.331645 -0.598895 -0.728904
vn -0.452559 -0.450117 -0.769768
vn -0.263261 -0.558568 -0.786572
vn -0.383604 -0.410484 -0.827255
vn -0.486615 -0.245203 -0.838500
vn -0.517176 -0.485414 -0.704913
vn -0.556078 -0.284036 -0.781060
vn -0.620210 -0.320148 -0.716132
vn -0.701962 -0.143998 -0.697505
vn -0.568368 -0.069042 -0.819872
vn -0.638234 -0.106998 -0.762352
vn -0.695853 0.074068 -0.714316
vn -0.759308 0.036253 -0.649721
vn -0.726737 0.252327 -0.638844
vn -0.625722 0.111190 -0.772080
vn -0.790054 0.213659 -0.574600
vn -0.792990 0.381412 -0.475071
vn -0.656466 0.288606 -0.696964
vn -0.659401 0.456377 -0.597420
vn -0.729698 0.420911 -0.538835
vn -0.768015 0.533088 -0.354923
vn -0.634431 0.608034 -0.477276
vn -0.704611 0.573290 -0.418104
vn -0.652425 0.703665 -0.281320
vn -0.716106 0.662820 -0.218775
vn -0.575213 0.806970 -0.133702
vn -0.582517 0.737762 -0.341146
vn -0.639232 0.765646 -0.071893
vn -0.540379 0.837598 0.080132
vn -0.505672 0.840573 -0.194247
vn -0.475875 0.879299 0.019044
vn -0.358226 0.917814 0.171056
vn -0.406801 0.912541 -0.042213
vn -0.289721 0.950879 0.109048
vn -0.423322 0.875928 0.231406
vn -0.014649 0.926572 0.375805
vn -0.078715 0.949118 0.304924
vn -0.225292 0.881673 0.414605
vn 0.049527 0.895121 0.443064
vn -0.097049 0.827681 0.552744
vn -0.161931 0.858791 0.486007
vn -0.302988 0.758019 0.577532
vn -0.365645 0.781398 0.505688
vn -0.494425 0.652108 0.574716
vn -0.237445 0.727398 0.643826
vn -0.432386 0.628132 0.646870
vn -0.606681 0.498810 0.618973
vn -0.366222 0.598106 0.712846
vn -0.545183 0.474075 0.691366
vn -0.478469 0.444810 0.757107
vn -0.637013 0.301798 0.709281
vn -0.698072 0.327363 0.636811
vn -0.765104 0.144387 0.627510
vn -0.569870 0.273362 0.774933
vn -0.636891 0.090399 0.765635
vn -0.704367 0.117954 0.699942
vn -0.805199 -0.043093 0.591436
vn -0.744652 -0.070406 0.663686
vn -0.816813 -0.227903 0.529978
vn -0.677000 -0.097081 0.729552
vn -0.688605 -0.281875 0.668109
vn -0.756340 -0.256111 0.601917
vn -0.799512 -0.402879 0.445498
vn -0.671300 -0.456877 0.583627
vn -0.738945 -0.431928 0.517045
vn -0.753931 -0.561366 0.341257
vn -0.625725 -0.615353 0.479383
vn -0.693136 -0.591205 0.412305
vn -0.620716 -0.727714 0.291696
vn -0.553648 -0.751217 0.359368
vn -0.681849 -0.697234 0.221238
vn -0.524430 -0.836268 0.159886
vn -0.457822 -0.859261 0.228189
vn -0.586034 -0.805262 0.090093
vn -0.470142 -0.881327 -0.047211
vn -0.341930 -0.935318 0.090904
vn -0.407971 -0.912717 0.021943
vn -0.275857 -0.954039 -0.116825
vn -0.210447 -0.976465 -0.047202
vn -0.338643 -0.922476 -0.185360
vn -0.196632 -0.927126 -0.319018
vn -0.068426 -0.981123 -0.180875
vn -0.133152 -0.958739 -0.251137
vn 0.014649 -0.926572 -0.375805
vn -0.049523 -0.895124 -0.443057
vn 0.097051 -0.827685 -0.552738
vn 0.078710 -0.949116 -0.304933
vn 0.161931 -0.858791 -0.486007
vn 0.237454 -0.727393 -0.643828
vn 0.225290 -0.881671 -0.414608
vn 0.303018 -0.758019 -0.577532
vn 0.365640 -0.781385 -0.505712
vn 0.432386 -0.628132 -0.646870
vn 0.366247 -0.598110 -0.712830
vn 0.478457 -0.444820 -0.757109
vn 0.494398 -0.652117 -0.574729
vn 0.545183 -0.474075 -0.691366
vn 0.569870 -0.273374 -0.774929
vn 0.606675 -0.498795 -0.618990
vn 0.637013 -0.301798 -0.709281
vn 0.698081 -0.327359 -0.636803
vn 0.704367 -0.117924 -0.699911
vn 0.636901 -0.090403 -0.765627
vn 0.744682 0.070406 -0.663686
vn 0.765123 -0.144385 -0.627486
vn 0.677013 0.097067 -0.729542
vn 0.756340 0.256081 -0.601917
vn 0.805201 0.043088 -0.591435
vn 0.688607 0.281881 -0.668105
vn 0.671295 0.456882 -0.583628
vn 0.816819 0.227881 -0.529979
vn 0.738945 0.431928 -0.517045
vn 0.693136 0.591205 -0.412275
vn 0.799507 0.402885 -0.445501
vn 0.625710 0.615369 -0.479382
vn 0.620716 0.727714 -0.291696
vn 0.753937 0.561361 -0.341252
vn 0.681850 0.697232 -0.221244
vn 0.553659 0.751211 -0.359366
vn 0.457816 0.859263 -0.228190
vn 0.586037 0.805265 -0.090056
vn 0.524430 0.836268 -0.159886
vn 0.341924 0.935321 -0.090906
vn 0.408002 0.912687 -0.021912
vn 0.210450 0.976464 0.047217
vn 0.470167 0.881313 0.047230
vn 0.338671 0.922471 0.185335
vn 0.275857 0.954039 0.116825
vn 0.068428 0.981123 0.180874
vn 0.196603 0.927139 0.318998
vn 0.133152 0.958739 0.251137
vn 0.000000 0.882717 0.469832
vn -0.098033 0.878479 0.467615
vn -0.098021 0.770386 0.629998
vn 0.098019 0.878487 0.467604
vn 0.000000 0.774102 0.633045
vn 0.098027 0.770376 0.630009
vn 0.000000 0.635701 0.771905
vn -0.098001 0.632672 0.768194
vn 0.000000 0.472915 0.881100
vn 0.098019 0.632663 0.768199
vn -0.098002 0.470642 0.876864
vn 0.000000 0.291940 0.956420
vn 0.098003 0.470654 0.876858
vn 0.098000 0.290543 0.951830
vn 0.000000 0.099734 0.994995
vn -0.098003 0.290545 0.951829
vn -0.097998 0.099274 0.990223
vn -0.098005 -0.095830 0.990561
vn 0.098009 0.099268 0.990222
vn 0.000000 -0.096286 0.995331
vn -0.098018 -0.287235 0.952832
vn 0.098039 -0.095838 0.990557
vn 0.000000 -0.288614 0.957427
vn -0.098020 -0.467606 0.878485
vn 0.098018 -0.287226 0.952835
vn 0.000000 -0.469863 0.882717
vn 0.000000 -0.633045 0.774102
vn 0.098018 -0.467606 0.878486
vn -0.098026 -0.630005 0.770379
vn 0.000000 -0.771874 0.635731
vn 0.098019 -0.630001 0.770384
vn -0.098024 -0.768182 0.632683
vn 0.000000 -0.881069 0.472915
vn 0.098003 -0.768181 0.632687
vn -0.098032 -0.876848 0.470667
vn -0.098020 -0.951831 0.290534
vn 0.098025 -0.876860 0.470646
vn 0.000000 -0.956420 0.291940
vn 0.000000 -0.994995 0.099704
vn 0.098014 -0.951830 0.290537
vn -0.098026 -0.990222 0.099249
vn 0.000000 -0.995331 -0.096255
vn 0.098026 -0.990223 0.099249
vn -0.098010 -0.990564 -0.095802
vn 0.000000 -0.957427 -0.288583
vn 0.098010 -0.990564 -0.095802
vn 0.098025 -0.952834 -0.287224
vn 0.000000 -0.882717 -0.469863
vn -0.098030 -0.952836 -0.287219
vn -0.098011 -0.878481 -0.467615
vn 0.000000 -0.774071 -0.633045
vn 0.098009 -0.878484 -0.467611
vn 0.098003 -0.770371 -0.630018
vn -0.098004 -0.770373 -0.630016
vn 0.000000 -0.635731 -0.771905
vn 0.098018 -0.632678 -0.768187
vn 0.098017 -0.470656 -0.876856
vn -0.098015 -0.632667 -0.768196
vn 0.000000 -0.472915 -0.881069
vn -0.098007 -0.470659 -0.876855
vn 0.000000 -0.291940 -0.956420
vn -0.098024 -0.290535 -0.951830
vn 0.000000 -0.099734 -0.994995
vn 0.098039 -0.290548 -0.951825
vn 0.098010 -0.099267 -0.990222
vn 0.000000 0.096286 -0.995331
vn -0.097992 -0.099275 -0.990223
vn -0.098000 0.095834 -0.990561
vn -0.098013 0.287244 -0.952830
vn 0.098008 0.095831 -0.990561
vn 0.000000 0.288614 -0.957427
vn 0.000000 0.469863 -0.882717
vn 0.098019 0.287248 -0.952828
vn -0.098014 0.467601 -0.878489
vn 0.000000 0.633045 -0.774102
vn 0.098009 0.467587 -0.878496
vn 0.098001 0.630006 -0.770382
vn -0.098028 0.629992 -0.770390
vn -0.098001 0.768196 -0.632670
vn 0.098016 0.768191 -0.632673
vn 0.000000 0.771874 -0.635731
vn -0.098029 0.876856 -0.470652
vn 0.098031 0.876853 -0.470658
vn 0.000000 0.881069 -0.472915
vn -0.098029 0.951829 -0.290538
vn 0.000000 0.956420 -0.291940
vn 0.000000 0.994995 -0.099704
vn 0.098023 0.951828 -0.290542
vn -0.098030 0.990223 -0.099241
vn 0.000000 0.995331 0.096286
vn 0.098039 0.990222 -0.099246
vn 0.098012 0.990562 0.095820
vn -0.097999 0.990564 0.095811
vn 0.000000 0.957427 0.288614
vn 0.097990 0.952831 0.287248
vn -0.097998 0.952835 0.287230
vn 0.000005 0.924531 0.381106
vn -0.195074 0.865749 0.460829
vn -0.000000 0.832442 0.554112
vn -0.194157 0.815563 0.545123
vn -0.382672 0.815516 0.434095
vn -0.194154 0.907651 0.372122
vn -0.380849 0.857669 0.345482
vn -0.555559 0.733940 0.390667
vn -0.380843 0.765559 0.518535
vn -0.552905 0.684379 0.475311
vn -0.552895 0.776490 0.302273
vn -0.707083 0.624165 0.332224
vn -0.703696 0.575131 0.417176
vn -0.827462 0.442008 0.346317
vn -0.703710 0.667239 0.244099
vn -0.831446 0.490402 0.261025
vn -0.827463 0.534122 0.173257
vn -0.923856 0.337809 0.179785
vn -0.919429 0.382242 0.092420
vn -0.980773 0.172216 0.091647
vn -0.919427 0.290127 0.265479
vn -0.976061 0.125340 0.177749
vn -0.976060 0.217449 0.004715
vn -1.000000 0.000000 0.000000
vn -0.995184 0.046058 -0.086531
vn -0.976065 -0.125323 -0.177739
vn -0.995184 -0.046057 0.086533
vn -0.976061 -0.217447 -0.004725
vn -0.980773 -0.172185 -0.091647
vn -0.923856 -0.337779 -0.179785
vn -0.919430 -0.382240 -0.092413
vn -0.919429 -0.290131 -0.265469
vn -0.831446 -0.490402 -0.261025
vn -0.827470 -0.534112 -0.173258
vn -0.827464 -0.442011 -0.346308
vn -0.707083 -0.624165 -0.332224
vn -0.703702 -0.667237 -0.244129
vn -0.703698 -0.575135 -0.417167
vn -0.555559 -0.733970 -0.390667
vn -0.552889 -0.776494 -0.302276
vn -0.552888 -0.684377 -0.475334
vn -0.382672 -0.815516 -0.434095
vn -0.380845 -0.857671 -0.345481
vn -0.380848 -0.765558 -0.518532
vn -0.195074 -0.865749 -0.460829
vn -0.194134 -0.907658 -0.372115
vn 0.000001 -0.924543 -0.381077
vn -0.194156 -0.815554 -0.545138
vn 0.000000 -0.882717 -0.469832
vn 0.000015 -0.832420 -0.554146
vn 0.195074 -0.865749 -0.460829
vn 0.194137 -0.815561 -0.545134
vn 0.380832 -0.765566 -0.518532
vn 0.194134 -0.907659 -0.372111
vn 0.382641 -0.815546 -0.434095
vn 0.380835 -0.857673 -0.345487
vn 0.555559 -0.733940 -0.390667
vn 0.552901 -0.684372 -0.475327
vn 0.707114 -0.624165 -0.332224
vn 0.552899 -0.776491 -0.302264
vn 0.703704 -0.667238 -0.244118
vn 0.703701 -0.575136 -0.417162
vn 0.827472 -0.442015 -0.346285
vn 0.827472 -0.534100 -0.173285
vn 0.831446 -0.490402 -0.261025
vn 0.919431 -0.382235 -0.092430
vn 0.919431 -0.290130 -0.265464
vn 0.923856 -0.337809 -0.179815
vn 0.976058 -0.125334 -0.177771
vn 0.976059 -0.217456 -0.004693
vn 0.980773 -0.172216 -0.091647
vn 0.995183 0.046062 -0.086538
vn 1.000000 0.000000 0.000000
vn 0.980773 0.172216 0.091647
vn 0.995184 -0.046064 0.086532
vn 0.976059 0.217457 0.004687
vn 0.923856 0.337779 0.179785
vn 0.976059 0.125332 0.177768
vn 0.919435 0.382229 0.092412
vn 0.827463 0.534119 0.173271
vn 0.919436 0.290119 0.265458
vn 0.827463 0.442015 0.346305
vn 0.831446 0.490402 0.261025
vn 0.703706 0.667233 0.244128
vn 0.707083 0.624165 0.332224
vn 0.552897 0.776487 0.302280
vn 0.703707 0.575134 0.417153
vn 0.552897 0.684392 0.475302
vn 0.555559 0.733940 0.390667
vn 0.380844 0.857674 0.345475
vn 0.380841 0.765563 0.518530
vn 0.382672 0.815516 0.434095
vn 0.194162 0.907654 0.372110
vn 0.195074 0.865749 0.460829
vn 0.194175 0.815565 0.545115
s 1
f 1/1/1 2/2/2 3/3/3
f 3/3/3 4/4/4 5/5/5
f 5/5/5 6/6/6 7/7/7
f 7/7/7 8/8/8 9/9/9
f 9/9/9 10/10/10 11/11/11
f 11/11/11 12/12/12 13/13/13
f 13/13/13 14/14/14 15/15/15
f 15/15/15 16/16/16 17/17/17
f 17/18/17 18/19/18 19/20/19
f 19/20/19 20/21/20 21/22/21
f 21/22/21 22/23/22 23/24/23
f 23/24/23 24/25/24 25/26/25
f 25/26/25 26/27/26 27/28/27
f 27/28/27 28/29/28 29/30/29
f 29/30/29 30/31/30 31/32/31
f 31/32/31 32/33/32 33/34/33
f 33/35/33 34/36/34 35/37/35
f 36/38/36 35/37/35 37/39/37
f 38/40/38 37/39/37 39/41/39
f 40/42/40 39/41/39 41/43/41
f 42/44/42 41/43/41 43/45/43
f 44/46/44 43/45/43 45/47/45
f 46/48/46 45/47/45 47/49/47
f 48/50/48 47/49/47 49/51/49
f 50/52/50 49/53/49 51/54/51
f 52/55/52 51/54/51 53/56/53
f 54/57/54 53/56/53 55/58/55
f 56/59/56 55/58/55 57/60/57
f 58/61/58 57/60/57 59/62/59
f 60/63/60 59/62/59 61/64/61
f 4/65/4 2/66/2 62/67/62
f 63/68/63 62/69/62 2/70/2
f 64/71/64 61/64/61 62/69/62
f 1/72/1 3/73/3 63/74/63
f 65/75/65 66/76/66 67/77/67
f 68/78/68 65/75/65 69/79/69
f 69/79/69 67/77/67 70/80/70
f 67/77/67 71/81/71 70/80/70
f 70/80/70 72/82/72 73/83/73
f 74/84/74 70/80/70 73/83/73
f 73/83/73 75/85/75 76/86/76
f 77/87/77 73/83/73 78/88/78
f 78/88/78 76/86/76 79/89/79
f 76/86/76 80/90/80 81/91/81
f 82/92/82 81/93/81 83/94/83
f 79/95/79 82/92/82 84/96/84
f 84/96/84 83/94/83 85/97/85
f 86/98/86 84/96/84 87/99/87
f 87/99/87 85/97/85 88/100/88
f 89/101/89 87/99/87 90/102/90
f 90/102/90 88/100/88 91/103/91
f 92/104/92 90/102/90 93/105/93
f 93/105/93 91/103/91 94/106/94
f 95/107/95 93/105/93 96/108/96
f 96/108/96 94/106/94 97/109/97
f 98/110/98 96/108/96 99/111/99
f 97/109/97 100/112/100 101/113/101
f 99/111/99 97/109/97 102/114/102
f 103/115/103 101/113/101 104/116/104
f 102/114/102 103/115/103 105/117/105
f 106/118/106 104/119/104 107/120/107
f 105/121/105 106/118/106 108/122/108
f 108/122/108 107/120/107 109/123/109
f 110/124/110 108/122/108 111/125/111
f 112/126/112 111/125/111 113/127/113
f 111/125/111 109/123/109 114/128/114
f 114/128/114 115/129/115 116/130/116
f 113/127/113 114/128/114 117/131/117
f 116/130/116 118/132/118 119/133/119
f 117/131/117 116/130/116 119/133/119
f 120/134/120 119/133/119 121/135/121
f 119/133/119 122/136/122 121/135/121
f 121/135/121 123/137/123 124/138/124
f 125/139/125 121/135/121 126/140/126
f 126/140/126 124/138/124 127/141/127
f 128/142/128 126/140/126 127/141/127
f 129/143/129 127/144/127 130/145/130
f 127/144/127 131/146/131 132/147/132
f 132/147/132 133/148/133 134/149/134
f 130/145/130 132/147/132 135/150/135
f 136/151/136 134/149/134 137/152/137
f 135/150/135 136/151/136 137/152/137
f 137/152/137 138/153/138 139/154/139
f 140/155/140 137/152/137 139/154/139
f 139/154/139 141/156/141 142/157/142
f 143/158/143 139/154/139 144/159/144
f 145/160/145 142/157/142 146/161/146
f 144/159/144 145/160/145 147/162/147
f 148/163/148 146/161/146 149/164/149
f 147/162/147 148/163/148 149/164/149
f 149/164/149 150/165/150 151/166/151
f 152/167/152 149/164/149 151/166/151
f 151/168/151 153/169/153 154/170/154
f 155/171/155 151/168/151 156/172/156
f 156/172/156 154/170/154 157/173/157
f 158/174/158 156/172/156 159/175/159
f 157/173/157 160/176/160 65/75/65
f 159/175/159 157/173/157 68/78/68
f 161/177/161 162/178/162 163/179/163
f 164/180/164 161/177/161 165/181/165
f 165/181/165 166/182/166 167/183/167
f 166/182/166 163/179/163 167/183/167
f 167/183/167 168/184/168 169/185/169
f 170/186/170 167/183/167 171/187/171
f 171/187/171 169/185/169 172/188/172
f 173/189/173 171/187/171 174/190/174
f 175/191/175 174/190/174 176/192/176
f 174/190/174 172/188/172 177/193/177
f 176/194/176 177/195/177 178/196/178
f 179/197/179 176/194/176 180/198/180
f 181/199/181 178/196/178 182/200/182
f 180/198/180 181/199/181 183/201/183
f 183/201/183 182/200/182 184/202/184
f 185/203/185 183/201/183 186/204/186
f 187/205/187 184/202/184 188/206/188
f 186/204/186 187/205/187 189/207/189
f 190/208/190 188/206/188 191/209/191
f 189/207/189 190/208/190 192/210/192
f 193/211/193 191/209/191 194/212/194
f 192/210/192 193/211/193 195/213/195
f 194/212/194 196/214/196 197/215/197
f 195/213/195 194/212/194 198/216/198
f 197/215/197 199/217/199 200/218/200
f 198/216/198 197/215/197 201/219/201
f 202/220/202 200/221/200 203/222/203
f 201/223/201 202/220/202 204/224/204
f 203/222/203 205/225/205 206/226/206
f 204/224/204 203/222/203 207/227/207
f 207/227/207 208/228/208 209/229/209
f 208/228/208 206/226/206 209/229/209
f 209/229/209 210/230/210 211/231/211
f 212/232/212 209/229/209 213/233/213
f 213/233/213 211/231/211 214/234/214
f 215/235/215 213/233/213 216/236/216
f 217/237/217 216/236/216 218/238/218
f 216/236/216 214/234/214 218/238/218
f 218/238/218 219/239/219 220/240/220
f 221/241/221 218/238/218 222/242/222
f 222/242/222 220/240/220 223/243/223
f 224/244/224 222/242/222 225/245/225
f 226/246/226 225/247/225 227/248/227
f 225/247/225 223/249/223 228/250/228
f 227/248/227 228/250/228 229/251/229
f 230/252/230 227/248/227 229/251/229
f 229/251/229 231/253/231 232/254/232
f 233/255/233 229/251/229 232/254/232
f 232/254/232 234/256/234 235/257/235
f 236/258/236 232/254/232 237/259/237
f 237/259/237 235/257/235 238/260/238
f 239/261/239 237/259/237 238/260/238
f 238/260/238 240/262/240 241/263/241
f 242/264/242 238/260/238 243/265/243
f 241/263/241 244/266/244 245/267/245
f 243/265/243 241/263/241 246/268/246
f 247/269/247 245/267/245 248/270/248
f 246/268/246 247/269/247 249/271/249
f 249/272/249 248/273/248 250/274/250
f 251/275/251 249/272/249 252/276/252
f 253/277/253 250/274/250 254/278/254
f 252/276/252 253/277/253 255/279/255
f 256/280/256 254/278/254 161/177/161
f 255/279/255 256/280/256 164/180/164
f 257/281/257 258/282/258 259/283/259
f 260/284/260 257/281/257 261/285/261
f 262/286/262 261/285/261 263/287/263
f 261/285/261 259/283/259 263/287/263
f 263/287/263 264/288/264 265/289/265
f 266/290/266 263/287/263 265/289/265
f 265/289/265 267/291/267 268/292/268
f 269/293/269 265/289/265 270/294/270
f 270/294/270 268/292/268 271/295/271
f 268/292/268 272/296/272 273/297/273
f 271/298/271 273/299/273 274/300/274
f 275/301/275 271/302/271 276/303/276
f 276/304/276 274/300/274 277/305/277
f 278/306/278 276/303/276 279/307/279
f 279/308/279 277/305/277 280/309/280
f 281/310/281 279/307/279 282/311/282
f 282/312/282 280/309/280 283/313/283
f 284/314/284 282/311/282 283/315/283
f 283/313/283 285/316/285 286/317/286
f 287/318/287 283/315/283 286/319/286
f 286/317/286 288/320/288 289/321/289
f 290/322/290 286/319/286 289/323/289
f 289/321/289 291/324/291 292/325/292
f 293/326/293 289/327/289 294/328/294
f 294/328/294 292/329/292 295/330/295
f 296/331/296 294/328/294 295/330/295
f 295/330/295 297/332/297 298/333/298
f 299/334/299 295/330/295 298/333/298
f 298/333/298 300/335/300 301/336/301
f 302/337/302 298/333/298 301/336/301
f 303/338/303 301/336/301 304/339/304
f 301/336/301 305/340/305 306/341/306
f 304/339/304 306/341/306 307/342/307
f 308/343/308 304/339/304 309/344/309
f 307/342/307 310/345/310 311/346/311
f 309/344/309 307/342/307 312/347/312
f 312/347/312 311/346/311 313/348/313
f 311/346/311 314/349/314 315/350/315
f 315/350/315 316/351/316 317/352/317
f 313/348/313 315/350/315 317/352/317
f 317/352/317 318/353/318 319/354/319
f 320/355/320 317/352/317 321/356/321
f 321/357/321 319/358/319 322/359/322
f 319/360/319 323/361/323 324/362/324
f 322/363/322 324/362/324 325/364/325
f 326/365/326 322/359/322 327/366/327
f 327/367/327 325/364/325 328/368/328
f 329/369/329 327/366/327 328/370/328
f 328/368/328 330/371/330 331/372/331
f 332/373/332 328/370/328 333/374/333
f 331/372/331 334/375/334 335/376/335
f 333/374/333 331/377/331 336/378/336
f 337/379/337 335/376/335 338/380/338
f 336/378/336 337/381/337 339/382/339
f 340/383/340 338/384/338 341/385/341
f 339/382/339 340/386/340 342/387/342
f 342/388/342 341/385/341 343/389/343
f 344/390/344 342/388/342 343/389/343
f 343/389/343 345/391/345 346/392/346
f 347/393/347 343/389/343 348/394/348
f 346/392/346 349/395/349 350/396/350
f 348/394/348 346/392/346 351/397/351
f 350/396/350 352/398/352 257/281/257
f 351/397/351 350/396/350 260/284/260
f 353/399/257 354/400/353 355/401/354
f 356/402/355 353/399/257 357/403/356
f 357/403/356 355/401/354 358/404/357
f 355/401/354 359/405/358 358/404/357
f 358/404/357 360/406/359 361/407/360
f 362/408/361 358/404/357 363/409/362
f 361/407/360 364/410/363 365/411/364
f 363/409/362 361/407/360 366/412/365
f 366/412/365 365/411/364 367/413/366
f 365/411/364 368/414/367 369/415/368
f 369/416/368 370/417/369 371/418/370
f 367/419/366 369/420/368 371/421/370
f 371/418/370 372/422/371 373/423/372
f 374/424/373 371/421/370 375/425/374
f 373/423/372 376/426/375 377/427/376
f 375/425/374 373/428/372 377/429/376
f 377/427/376 378/430/377 379/431/378
f 380/432/379 377/429/376 381/433/380
f 382/434/381 379/431/378 383/435/382
f 381/433/380 382/436/381 384/437/383
f 383/435/382 385/438/384 386/439/385
f 384/437/383 383/440/382 387/441/386
f 386/439/385 388/442/387 389/443/388
f 387/441/386 386/444/385 390/445/389
f 389/446/388 391/447/390 392/448/391
f 390/449/389 389/446/388 393/450/392
f 392/448/391 394/451/393 395/452/394
f 393/450/392 392/448/391 396/453/395
f 395/452/394 397/454/396 398/455/397
f 396/453/395 395/452/394 399/456/398
f 399/456/398 398/455/397 400/457/399
f 398/455/397 401/458/400 402/459/401
f 402/459/401 403/460/402 404/461/403
f 400/457/399 402/459/401 404/461/403
f 404/461/403 405/462/404 406/463/405
f 407/464/406 404/461/403 408/465/407
f 409/466/408 408/465/407 410/467/409
f 408/465/407 406/463/405 410/467/409
f 410/467/409 411/468/410 412/469/411
f 413/470/412 410/467/409 414/471/413
f 412/469/411 415/472/414 416/473/415
f 414/471/413 412/469/411 417/474/416
f 417/475/416 418/476/417 419/477/418
f 418/478/417 416/479/415 420/480/419
f 421/481/420 420/480/419 422/482/421
f 419/477/418 421/483/420 423/484/422
f 424/485/423 422/482/421 425/486/424
f 423/484/422 424/487/423 426/488/425
f 426/489/425 425/486/424 427/490/426
f 428/491/427 426/488/425 427/492/426
f 427/490/426 429/493/428 430/494/429
f 431/495/430 427/492/426 430/496/429
f 430/494/429 432/497/431 433/498/432
f 434/499/433 430/496/429 435/500/434
f 436/501/435 433/498/432 437/502/436
f 435/500/434 436/503/435 438/504/437
f 438/505/437 437/506/436 439/507/438
f 440/508/439 438/505/437 441/509/440
f 442/510/441 439/507/438 443/511/442
f 441/509/440 442/510/441 444/512/443
f 445/513/444 443/511/442 446/514/445
f 444/512/443 445/513/444 447/515/446
f 447/515/446 446/514/445 354/400/353
f 448/516/447 447/515/446 353/399/257
f 2/2/2 4/4/4 3/3/3
f 4/4/4 6/6/6 5/5/5
f 6/6/6 8/8/8 7/7/7
f 8/8/8 10/10/10 9/9/9
f 10/10/10 12/12/12 11/11/11
f 12/12/12 14/14/14 13/13/13
f 14/14/14 16/16/16 15/15/15
f 16/16/16 18/517/18 17/17/17
f 18/19/18 20/21/20 19/20/19
f 20/21/20 22/23/22 21/22/21
f 22/23/22 24/25/24 23/24/23
f 24/25/24 26/27/26 25/26/25
f 26/27/26 28/29/28 27/28/27
f 28/29/28 30/31/30 29/30/29
f 30/31/30 32/33/32 31/32/31
f 32/33/32 34/518/34 33/34/33
f 36/38/36 33/35/33 35/37/35
f 38/40/38 36/38/36 37/39/37
f 40/42/40 38/40/38 39/41/39
f 42/44/42 40/42/40 41/43/41
f 44/46/44 42/44/42 43/45/43
f 46/48/46 44/46/44 45/47/45
f 48/50/48 46/48/46 47/49/47
f 50/519/50 48/50/48 49/51/49
f 52/55/52 50/52/50 51/54/51
f 54/57/54 52/55/52 53/56/53
f 56/59/56 54/57/54 55/58/55
f 58/61/58 56/59/56 57/60/57
f 60/63/60 58/61/58 59/62/59
f 64/71/64 60/63/60 61/64/61
f 55/520/55 59/521/59 57/522/57
f 51/523/51 55/520/55 53/524/53
f 49/525/49 55/520/55 51/523/51
f 49/525/49 59/521/59 55/520/55
f 45/526/45 49/525/49 47/527/47
f 45/526/45 59/521/59 49/525/49
f 41/528/41 45/526/45 43/529/43
f 39/530/39 45/526/45 41/528/41
f 37/531/37 45/526/45 39/530/39
f 35/532/35 45/526/45 37/531/37
f 30/533/30 34/534/34 32/535/32
f 24/536/24 28/537/28 26/538/26
f 24/536/24 30/533/30 28/537/28
f 20/539/20 24/536/24 22/540/22
f 20/539/20 30/533/30 24/536/24
f 10/541/10 14/542/14 12/543/12
f 16/544/16 20/539/20 18/545/18
f 16/544/16 30/533/30 20/539/20
f 8/546/8 14/542/14 10/541/10
f 6/547/6 4/65/4 8/546/8
f 4/65/4 62/67/62 8/546/8
f 8/546/8 62/67/62 14/542/14
f 14/542/14 62/67/62 16/544/16
f 61/548/61 59/521/59 45/526/45
f 62/67/62 61/548/61 16/544/16
f 61/548/61 45/526/45 16/544/16
f 45/526/45 35/532/35 16/544/16
f 35/532/35 34/534/34 30/533/30
f 16/544/16 35/532/35 30/533/30
f 1/549/1 63/68/63 2/70/2
f 63/68/63 64/71/64 62/69/62
f 11/550/11 7/551/7 9/552/9
f 36/553/36 31/554/31 33/555/33
f 36/553/36 29/556/29 31/554/31
f 36/553/36 27/557/27 29/556/29
f 50/558/50 46/559/46 48/560/48
f 54/561/54 50/558/50 52/562/52
f 63/74/63 3/73/3 64/563/64
f 3/73/3 5/564/5 64/563/64
f 5/564/5 7/551/7 64/563/64
f 64/563/64 7/551/7 60/565/60
f 60/565/60 7/551/7 58/566/58
f 7/551/7 11/550/11 58/566/58
f 58/566/58 11/550/11 56/567/56
f 56/567/56 11/550/11 54/561/54
f 11/550/11 13/568/13 54/561/54
f 13/568/13 15/569/15 54/561/54
f 54/561/54 15/569/15 50/558/50
f 15/569/15 17/570/17 50/558/50
f 50/558/50 17/570/17 46/559/46
f 17/570/17 19/571/19 46/559/46
f 19/571/19 21/572/21 46/559/46
f 21/572/21 23/573/23 46/559/46
f 46/559/46 23/573/23 44/574/44
f 44/574/44 23/573/23 42/575/42
f 23/573/23 25/576/25 42/575/42
f 42/575/42 25/576/25 40/577/40
f 40/577/40 25/576/25 38/578/38
f 25/576/25 27/557/27 36/553/36
f 38/578/38 25/576/25 36/553/36
f 66/76/66 71/81/71 67/77/67
f 65/75/65 67/77/67 69/79/69
f 74/84/74 69/79/69 70/80/70
f 71/81/71 72/82/72 70/80/70
f 72/82/72 75/85/75 73/83/73
f 77/87/77 74/84/74 73/83/73
f 75/85/75 80/90/80 76/86/76
f 73/83/73 76/86/76 78/88/78
f 76/86/76 82/579/82 79/89/79
f 82/579/82 76/86/76 81/91/81
f 84/96/84 82/92/82 83/94/83
f 86/98/86 79/95/79 84/96/84
f 87/99/87 84/96/84 85/97/85
f 89/101/89 86/98/86 87/99/87
f 90/102/90 87/99/87 88/100/88
f 92/104/92 89/101/89 90/102/90
f 93/105/93 90/102/90 91/103/91
f 95/107/95 92/104/92 93/105/93
f 96/108/96 93/105/93 94/106/94
f 98/110/98 95/107/95 96/108/96
f 94/106/94 100/112/100 97/109/97
f 96/108/96 97/109/97 99/111/99
f 103/115/103 97/109/97 101/113/101
f 97/109/97 103/115/103 102/114/102
f 106/580/106 103/115/103 104/116/104
f 103/115/103 106/580/106 105/117/105
f 108/122/108 106/118/106 107/120/107
f 110/124/110 105/121/105 108/122/108
f 111/125/111 108/122/108 109/123/109
f 112/126/112 110/124/110 111/125/111
f 111/125/111 114/128/114 113/127/113
f 109/123/109 115/129/115 114/128/114
f 115/129/115 118/132/118 116/130/116
f 114/128/114 116/130/116 117/131/117
f 118/132/118 122/136/122 119/133/119
f 120/134/120 117/131/117 119/133/119
f 125/139/125 120/134/120 121/135/121
f 122/136/122 123/137/123 121/135/121
f 126/140/126 121/135/121 124/138/124
f 128/142/128 125/139/125 126/140/126
f 124/138/124 131/581/131 127/141/127
f 129/582/129 128/142/128 127/141/127
f 127/144/127 132/147/132 130/145/130
f 131/146/131 133/148/133 132/147/132
f 136/151/136 132/147/132 134/149/134
f 132/147/132 136/151/136 135/150/135
f 134/149/134 138/153/138 137/152/137
f 140/155/140 135/150/135 137/152/137
f 138/153/138 141/156/141 139/154/139
f 143/158/143 140/155/140 139/154/139
f 145/160/145 139/154/139 142/157/142
f 139/154/139 145/160/145 144/159/144
f 148/163/148 145/160/145 146/161/146
f 145/160/145 148/163/148 147/162/147
f 146/161/146 150/165/150 149/164/149
f 152/167/152 147/162/147 149/164/149
f 150/165/150 153/583/153 151/166/151
f 155/584/155 152/167/152 151/166/151
f 156/172/156 151/168/151 154/170/154
f 158/174/158 155/171/155 156/172/156
f 154/170/154 160/176/160 157/173/157
f 156/172/156 157/173/157 159/175/159
f 160/176/160 66/76/66 65/75/65
f 157/173/157 65/75/65 68/78/68
f 166/182/166 161/177/161 163/179/163
f 161/177/161 166/182/166 165/181/165
f 170/186/170 165/181/165 167/183/167
f 163/179/163 168/184/168 167/183/167
f 171/187/171 167/183/167 169/185/169
f 173/189/173 170/186/170 171/187/171
f 174/190/174 171/187/171 172/188/172
f 175/191/175 173/189/173 174/190/174
f 179/585/179 175/191/175 176/192/176
f 176/192/176 174/190/174 177/193/177
f 181/199/181 176/194/176 178/196/178
f 176/194/176 181/199/181 180/198/180
f 183/201/183 181/199/181 182/200/182
f 185/203/185 180/198/180 183/201/183
f 187/205/187 183/201/183 184/202/184
f 183/201/183 187/205/187 186/204/186
f 190/208/190 187/205/187 188/206/188
f 187/205/187 190/208/190 189/207/189
f 193/211/193 190/208/190 191/209/191
f 190/208/190 193/211/193 192/210/192
f 191/209/191 196/214/196 194/212/194
f 193/211/193 194/212/194 195/213/195
f 196/214/196 199/217/199 197/215/197
f 194/212/194 197/215/197 198/216/198
f 202/586/202 197/215/197 200/218/200
f 197/215/197 202/586/202 201/219/201
f 200/221/200 205/225/205 203/222/203
f 202/220/202 203/222/203 204/224/204
f 208/228/208 203/222/203 206/226/206
f 203/222/203 208/228/208 207/227/207
f 212/232/212 207/227/207 209/229/209
f 206/226/206 210/230/210 209/229/209
f 213/233/213 209/229/209 211/231/211
f 215/235/215 212/232/212 213/233/213
f 216/236/216 213/233/213 214/234/214
f 217/237/217 215/235/215 216/236/216
f 221/241/221 217/237/217 218/238/218
f 214/234/214 219/239/219 218/238/218
f 222/242/222 218/238/218 220/240/220
f 224/244/224 221/241/221 222/242/222
f 225/245/225 222/242/222 223/243/223
f 226/587/226 224/244/224 225/245/225
f 230/252/230 226/246/226 227/248/227
f 227/248/227 225/247/225 228/250/228
f 228/250/228 231/253/231 229/251/229
f 233/255/233 230/252/230 229/251/229
f 231/253/231 234/256/234 232/254/232
f 236/258/236 233/255/233 232/254/232
f 237/259/237 232/254/232 235/257/235
f 239/261/239 236/258/236 237/259/237
f 235/257/235 240/262/240 238/260/238
f 242/264/242 239/261/239 238/260/238
f 240/262/240 244/266/244 241/263/241
f 238/260/238 241/263/241 243/265/243
f 247/269/247 241/263/241 245/267/245
f 241/263/241 247/269/247 246/268/246
f 249/271/249 247/269/247 248/270/248
f 251/588/251 246/268/246 249/271/249
f 253/277/253 249/272/249 250/274/250
f 249/272/249 253/277/253 252/276/252
f 256/280/256 253/277/253 254/278/254
f 253/277/253 256/280/256 255/279/255
f 254/278/254 162/178/162 161/177/161
f 256/280/256 161/177/161 164/180/164
f 261/285/261 257/281/257 259/283/259
f 262/286/262 260/284/260 261/285/261
f 266/290/266 262/286/262 263/287/263
f 259/283/259 264/288/264 263/287/263
f 264/288/264 267/291/267 265/289/265
f 269/293/269 266/290/266 265/289/265
f 267/291/267 272/296/272 268/292/268
f 265/289/265 268/292/268 270/294/270
f 275/589/275 270/294/270 271/295/271
f 271/295/271 268/292/268 273/297/273
f 276/304/276 271/298/271 274/300/274
f 278/306/278 275/301/275 276/303/276
f 279/308/279 276/304/276 277/305/277
f 281/310/281 278/306/278 279/307/279
f 282/312/282 279/308/279 280/309/280
f 284/314/284 281/310/281 282/311/282
f 280/309/280 285/316/285 283/313/283
f 287/318/287 284/314/284 283/315/283
f 285/316/285 288/320/288 286/317/286
f 290/322/290 287/318/287 286/319/286
f 288/320/288 291/324/291 289/321/289
f 293/590/293 290/322/290 289/323/289
f 294/591/294 289/321/289 292/325/292
f 296/331/296 293/326/293 294/328/294
f 292/329/292 297/332/297 295/330/295
f 299/334/299 296/331/296 295/330/295
f 297/332/297 300/335/300 298/333/298
f 302/337/302 299/334/299 298/333/298
f 300/335/300 305/340/305 301/336/301
f 303/338/303 302/337/302 301/336/301
f 308/343/308 303/338/303 304/339/304
f 304/339/304 301/336/301 306/341/306
f 306/341/306 310/345/310 307/342/307
f 304/339/304 307/342/307 309/344/309
f 310/345/310 314/349/314 311/346/311
f 307/342/307 311/346/311 312/347/312
f 311/346/311 315/350/315 313/348/313
f 314/349/314 316/351/316 315/350/315
f 316/351/316 318/353/318 317/352/317
f 320/355/320 313/348/313 317/352/317
f 318/353/318 323/592/323 319/354/319
f 317/352/317 319/354/319 321/356/321
f 326/365/326 321/357/321 322/359/322
f 322/363/322 319/360/319 324/362/324
f 327/367/327 322/363/322 325/364/325
f 329/369/329 326/365/326 327/366/327
f 325/364/325 330/371/330 328/368/328
f 332/373/332 329/369/329 328/370/328
f 330/371/330 334/375/334 331/372/331
f 328/370/328 331/377/331 333/374/333
f 337/379/337 331/372/331 335/376/335
f 331/377/331 337/381/337 336/378/336
f 340/593/340 337/379/337 338/380/338
f 337/381/337 340/386/340 339/382/339
f 342/388/342 340/383/340 341/385/341
f 344/594/344 339/382/339 342/387/342
f 341/385/341 345/391/345 343/389/343
f 347/393/347 344/390/344 343/389/343
f 345/391/345 349/395/349 346/392/346
f 343/389/343 346/392/346 348/394/348
f 349/395/349 352/398/352 350/396/350
f 346/392/346 350/396/350 351/397/351
f 352/398/352 258/282/258 257/281/257
f 350/396/350 257/281/257 260/284/260
f 354/400/353 359/405/358 355/401/354
f 353/399/257 355/401/354 357/403/356
f 362/408/361 357/403/356 358/404/357
f 359/405/358 360/406/359 358/404/357
f 360/406/359 364/410/363 361/407/360
f 358/404/357 361/407/360 363/409/362
f 364/410/363 368/414/367 365/411/364
f 361/407/360 365/411/364 366/412/365
f 365/411/364 369/415/368 367/413/366
f 368/414/367 370/595/369 369/415/368
f 370/417/369 372/422/371 371/418/370
f 374/424/373 367/419/366 371/421/370
f 372/422/371 376/426/375 373/423/372
f 371/421/370 373/428/372 375/425/374
f 376/426/375 378/430/377 377/427/376
f 380/432/379 375/425/374 377/429/376
f 382/434/381 377/427/376 379/431/378
f 377/429/376 382/436/381 381/433/380
f 379/431/378 385/438/384 383/435/382
f 382/436/381 383/440/382 384/437/383
f 385/438/384 388/442/387 386/439/385
f 383/440/382 386/444/385 387/441/386
f 388/442/387 391/596/390 389/443/388
f 386/444/385 389/597/388 390/445/389
f 391/447/390 394/451/393 392/448/391
f 389/446/388 392/448/391 393/450/392
f 394/451/393 397/454/396 395/452/394
f 392/448/391 395/452/394 396/453/395
f 397/454/396 401/458/400 398/455/397
f 395/452/394 398/455/397 399/456/398
f 398/455/397 402/459/401 400/457/399
f 401/458/400 403/460/402 402/459/401
f 403/460/402 405/462/404 404/461/403
f 407/464/406 400/457/399 404/461/403
f 408/465/407 404/461/403 406/463/405
f 409/466/408 407/464/406 408/465/407
f 413/470/412 409/466/408 410/467/409
f 406/463/405 411/468/410 410/467/409
f 411/468/410 415/472/414 412/469/411
f 410/467/409 412/469/411 414/471/413
f 418/598/417 412/469/411 416/473/415
f 412/469/411 418/598/417 417/474/416
f 418/476/417 421/483/420 419/477/418
f 421/481/420 418/478/417 420/480/419
f 424/485/423 421/481/420 422/482/421
f 421/483/420 424/487/423 423/484/422
f 426/489/425 424/485/423 425/486/424
f 428/491/427 423/484/422 426/488/425
f 425/486/424 429/493/428 427/490/426
f 431/495/430 428/491/427 427/492/426
f 429/493/428 432/497/431 430/494/429
f 434/499/433 431/495/430 430/496/429
f 436/501/435 430/494/429 433/498/432
f 430/496/429 436/503/435 435/500/434
f 438/599/437 436/501/435 437/502/436
f 440/600/439 435/500/434 438/504/437
f 442/510/441 438/505/437 439/507/438
f 438/505/437 442/510/441 441/509/440
f 445/513/444 442/510/441 443/511/442
f 442/510/441 445/513/444 444/512/443
f 447/515/446 445/513/444 446/514/445
f 448/516/447 444/512/443 447/515/446
f 353/399/257 447/515/446 354/400/353
f 356/402/355 448/516/447 353/399/257
